{
  "items": [
    {
      "id": "1",
      "subtitle": "Recommend",
      "image": "/img/store-1.png",
      "name": "Asus ZenFone Go ZB45",
      "price": "384.4"
    },
    {
      "id": "2",
      "subtitle": "Bestseller",
      "image": "/img/store-2.png",
      "name": "Xiaomi Mi Band 2",
      "price": "384.4"
    },
    {
      "id": "3",
      "subtitle": "Goods of the week",
      "image": "/img/store-3.png",
      "name": "LG 43UH610V",
      "price": "384.4"
    },
    {
      "id": "4",
      "subtitle": "Recommend",
      "image": "/img/store-4.png",
      "name": "Electrolux EZB 52410 AK",
      "price": "384.4"
    },
    {
      "id": "5",
      "subtitle": "Bestseller",
      "image": "/img/store-5.png",
      "name": "Beats studio wireless",
      "price": "384.4"
    },
    {
      "id": "6",
      "subtitle": "Recommend",
      "image": "/img/store-6.png",
      "name": "Nikon D3300 Kit",
      "price": "384.4"
    },
    {
      "id": "7",
      "subtitle": "Recommend2",
      "image": "/img/store-1.png",
      "name": "Asus ZenFone Go ZB45",
      "price": "384.4"
    },
    {
      "id": "8",
      "subtitle": "Bestseller",
      "image": "/img/store-2.png",
      "name": "Xiaomi Mi Band 2",
      "price": "384.4"
    },
    {
      "id": "9",
      "subtitle": "Goods of the week",
      "image": "/img/store-3.png",
      "name": "LG 43UH610V",
      "price": "384.4"
    },
    {
      "id": "10",
      "subtitle": "Recommend",
      "image": "/img/store-4.png",
      "name": "Electrolux EZB 52410 AK",
      "price": "384.4"
    },
    {
      "id": "11",
      "subtitle": "Bestseller",
      "image": "/img/store-5.png",
      "name": "Beats studio wireless",
      "price": "384.4"
    },
    {
      "id": "12",
      "subtitle": "Recommend",
      "image": "/img/store-6.png",
      "name": "Nikon D3300 Kit",
      "price": "384.4"
    },
    {
      "id": "13",
      "subtitle": "Recommend3",
      "image": "/img/store-1.png",
      "name": "Asus ZenFone Go ZB45",
      "price": "384.4"
    },
    {
      "id": "14",
      "subtitle": "Bestseller",
      "image": "/img/store-2.png",
      "name": "Xiaomi Mi Band 2",
      "price": "384.4"
    },
    {
      "id": "15",
      "subtitle": "Goods of the week",
      "image": "/img/store-3.png",
      "name": "LG 43UH610V",
      "price": "384.4"
    },
    {
      "id": "16",
      "subtitle": "Recommend",
      "image": "/img/store-4.png",
      "name": "Electrolux EZB 52410 AK",
      "price": "384.4"
    },
    {
      "id": "17",
      "subtitle": "Bestseller",
      "image": "/img/store-5.png",
      "name": "Beats studio wireless",
      "price": "384.4"
    },
    {
      "id": "18",
      "subtitle": "Recommend",
      "image": "/img/store-6.png",
      "name": "Nikon D3300 Kit",
      "price": "384.4"
    }
  ]
}
